minilab1a/dump.vcd
$date
	Thu Feb  5 16:26:56 2026
$end
$version
	Icarus Verilog
$end
$timescale
	1ns
$end
$scope module tb $end
$var wire 10 ! LEDR [9:0] $end
$var wire 7 " HEX5 [6:0] $end
$var wire 7 # HEX4 [6:0] $end
$var wire 7 $ HEX3 [6:0] $end
$var wire 7 % HEX2 [6:0] $end
$var wire 7 & HEX1 [6:0] $end
$var wire 7 ' HEX0 [6:0] $end
$var reg 4 ( KEY [3:0] $end
$var reg 10 ) SW [9:0] $end
$var reg 1 * clk $end
$scope module ml $end
$var wire 1 * CLOCK2_50 $end
$var wire 1 * CLOCK3_50 $end
$var wire 1 * CLOCK4_50 $end
$var wire 1 * CLOCK_50 $end
$var wire 4 + KEY [3:0] $end
$var wire 10 , SW [9:0] $end
$var wire 2 - wren [1:0] $end
$var wire 1 . rst_n $end
$var wire 2 / rden [1:0] $end
$var wire 24 0 macout [23:0] $end
$var wire 2 1 full [1:0] $end
$var wire 2 2 empty [1:0] $end
$var wire 10 3 LEDR [9:0] $end
$var parameter 32 4 DATA_WIDTH $end
$var parameter 32 5 DEPTH $end
$var parameter 2 6 DONE $end
$var parameter 2 7 EXEC $end
$var parameter 2 8 FILL $end
$var parameter 7 9 HEX_0 $end
$var parameter 7 : HEX_1 $end
$var parameter 7 ; HEX_10 $end
$var parameter 7 < HEX_11 $end
$var parameter 7 = HEX_12 $end
$var parameter 7 > HEX_13 $end
$var parameter 7 ? HEX_14 $end
$var parameter 7 @ HEX_15 $end
$var parameter 7 A HEX_2 $end
$var parameter 7 B HEX_3 $end
$var parameter 7 C HEX_4 $end
$var parameter 7 D HEX_5 $end
$var parameter 7 E HEX_6 $end
$var parameter 7 F HEX_7 $end
$var parameter 7 G HEX_8 $end
$var parameter 7 H HEX_9 $end
$var parameter 7 I OFF $end
$var reg 7 J HEX0 [6:0] $end
$var reg 7 K HEX1 [6:0] $end
$var reg 7 L HEX2 [6:0] $end
$var reg 7 M HEX3 [6:0] $end
$var reg 7 N HEX4 [6:0] $end
$var reg 7 O HEX5 [6:0] $end
$var reg 24 P result [23:0] $end
$var reg 2 Q state [1:0] $end
$var integer 32 R j [31:0] $end
$scope begin fifo_gen[0] $end
$var parameter 2 S i $end
$scope module input_fifo $end
$var wire 1 * clk $end
$var wire 1 T empty $end
$var wire 1 U full $end
$var wire 8 V i_data [7:0] $end
$var wire 1 W rden $end
$var wire 1 . rst_n $end
$var wire 1 X wren $end
$var parameter 32 Y DATA_WIDTH $end
$var parameter 32 Z DEPTH $end
$var reg 3 [ bptr_raw [2:0] $end
$var reg 1 \ dir $end
$var reg 3 ] fptr_raw [2:0] $end
$var reg 8 ^ o_data [7:0] $end
$scope begin $ivl_for_loop0 $end
$var integer 32 _ i [31:0] $end
$upscope $end
$upscope $end
$upscope $end
$scope begin fifo_gen[1] $end
$var parameter 2 ` i $end
$scope module input_fifo $end
$var wire 1 * clk $end
$var wire 1 a empty $end
$var wire 1 b full $end
$var wire 8 c i_data [7:0] $end
$var wire 1 d rden $end
$var wire 1 . rst_n $end
$var wire 1 e wren $end
$var parameter 32 f DATA_WIDTH $end
$var parameter 32 g DEPTH $end
$var reg 3 h bptr_raw [2:0] $end
$var reg 1 i dir $end
$var reg 3 j fptr_raw [2:0] $end
$var reg 8 k o_data [7:0] $end
$scope begin $ivl_for_loop0 $end
$var integer 32 l i [31:0] $end
$upscope $end
$upscope $end
$upscope $end
$scope module mac $end
$var wire 8 m Ain [7:0] $end
$var wire 8 n Bin [7:0] $end
$var wire 1 o Clr $end
$var wire 1 p En $end
$var wire 1 * clk $end
$var wire 1 . rst_n $end
$var parameter 32 q DATA_WIDTH $end
$var reg 24 r Cout [23:0] $end
$upscope $end
$upscope $end
$upscope $end
$enddefinitions $end
$comment Show the parameter values. $end
$dumpall
b1000 q
b1000 g
b1000 f
b1 `
b1000 Z
b1000 Y
b0 S
b1111111 I
b11000 H
b0 G
b1111000 F
b10 E
b10010 D
b11001 C
b110000 B
b100100 A
b1110 @
b110 ?
b100001 >
b1000110 =
b11 <
b1000 ;
b1111001 :
b1000000 9
b0 8
b1 7
b10 6
b1000 5
b1000 4
$end
#0
$dumpvars
b0 r
0p
0o
b0 n
b0 m
b1000 l
b0 k
b0 j
0i
b0 h
1e
0d
b0 c
0b
1a
b1000 _
b0 ^
b0 ]
0\
b0 [
1X
0W
b0 V
0U
1T
b10 R
b0 Q
b0 P
b1111111 O
b1111111 N
b1111111 M
b1111111 L
b1111111 K
b1111111 J
b0 3
b11 2
b0 1
b0 0
b0 /
0.
b11 -
b1 ,
b0 +
0*
b1 )
b0 (
b1111111 '
b1111111 &
b1111111 %
b1111111 $
b1111111 #
b1111111 "
b0 !
$end
#5
b1000 l
b1000 _
b10 R
1*
#10
0*
#15
b1000 l
b1000 _
b10 R
1*
#20
0*
#25
b1000 l
b1000 _
b10 R
1*
#30
0*
#35
b1000 l
b1000 _
b10 R
1*
#40
0*
#45
b1000 l
b1000 _
b10 R
1*
#50
0*
#55
b1000 l
b1000 _
b10 R
1*
#60
0*
#65
b1000 l
b1000 _
b10 R
1*
#70
0*
#75
b1000 l
b1000 _
b10 R
1*
#80
0*
#85
b1000 l
b1000 _
b10 R
1*
#90
0*
#95
b1000 l
b1000 _
b10 R
1*
#100
1.
0*
b0 )
b0 ,
b1 (
b1 +
#105
0T
b0 2
0a
b1010 c
b101 V
1i
1\
b1 ]
b1 j
1*
#110
0*
#115
b10 j
b10 ]
b10100 c
b1010 V
1*
#120
0*
#125
b11110 c
b1111 V
b11 ]
b11 j
1*
#130
0*
#135
b100 j
b100 ]
b101000 c
b10100 V
1*
#140
0*
#145
b110010 c
b11001 V
b101 ]
b101 j
1*
#150
0*
#155
b110 j
b110 ]
b111100 c
b11110 V
1*
#160
0*
#165
b1000110 c
b100011 V
b111 ]
b111 j
1*
#170
0*
#175
1b
b11 1
1U
b0 j
b0 ]
b1010000 c
b101000 V
1*
#180
0*
#185
0e
1d
0X
1p
1W
b0 -
b11 /
b1 !
b1 3
b1 Q
1*
#190
0*
#195
0U
b0 1
0b
b1 h
b1 [
0\
0i
1*
#200
0*
#205
b10 [
b101 ^
b101 m
b10 h
b1010 k
b1010 n
1*
#210
0*
#215
b11 h
b10100 k
b10100 n
b11 [
b1010 ^
b1010 m
b110010 0
b110010 r
1*
#220
0*
#225
b100 [
b1111 ^
b1111 m
b100 h
b11110 k
b11110 n
b11111010 0
b11111010 r
1*
#230
0*
#235
b101 h
b101000 k
b101000 n
b101 [
b10100 ^
b10100 m
b1010111100 0
b1010111100 r
1*
#240
0*
#245
b110 [
b11001 ^
b11001 m
b110 h
b110010 k
b110010 n
b10111011100 0
b10111011100 r
1*
#250
0*
#255
b111 h
b111100 k
b111100 n
b111 [
b11110 ^
b11110 m
b101010111110 0
b101010111110 r
1*
#260
0*
#265
1T
b11 2
1a
b0 [
b100011 ^
b100011 m
b0 h
b1000110 k
b1000110 n
b1000111000110 0
b1000111000110 r
1*
#270
0*
#275
0d
0W
0p
b0 /
b10 !
b10 3
b10 Q
b1101101011000 0
b1101101011000 r
1*
#280
0*
#285
b1101101011000 P
1*
