1a_actually0/dump.vcd
$date
	Thu Feb  5 16:14:29 2026
$end
$version
	ModelSim Version 10.5b
$end
$timescale
	1ps
$end

$scope module tb $end
$var reg 1 ! clk $end
$var wire 1 " HEX0 [6] $end
$var wire 1 # HEX0 [5] $end
$var wire 1 $ HEX0 [4] $end
$var wire 1 % HEX0 [3] $end
$var wire 1 & HEX0 [2] $end
$var wire 1 ' HEX0 [1] $end
$var wire 1 ( HEX0 [0] $end
$var wire 1 ) HEX1 [6] $end
$var wire 1 * HEX1 [5] $end
$var wire 1 + HEX1 [4] $end
$var wire 1 , HEX1 [3] $end
$var wire 1 - HEX1 [2] $end
$var wire 1 . HEX1 [1] $end
$var wire 1 / HEX1 [0] $end
$var wire 1 0 HEX2 [6] $end
$var wire 1 1 HEX2 [5] $end
$var wire 1 2 HEX2 [4] $end
$var wire 1 3 HEX2 [3] $end
$var wire 1 4 HEX2 [2] $end
$var wire 1 5 HEX2 [1] $end
$var wire 1 6 HEX2 [0] $end
$var wire 1 7 HEX3 [6] $end
$var wire 1 8 HEX3 [5] $end
$var wire 1 9 HEX3 [4] $end
$var wire 1 : HEX3 [3] $end
$var wire 1 ; HEX3 [2] $end
$var wire 1 < HEX3 [1] $end
$var wire 1 = HEX3 [0] $end
$var wire 1 > HEX4 [6] $end
$var wire 1 ? HEX4 [5] $end
$var wire 1 @ HEX4 [4] $end
$var wire 1 A HEX4 [3] $end
$var wire 1 B HEX4 [2] $end
$var wire 1 C HEX4 [1] $end
$var wire 1 D HEX4 [0] $end
$var wire 1 E HEX5 [6] $end
$var wire 1 F HEX5 [5] $end
$var wire 1 G HEX5 [4] $end
$var wire 1 H HEX5 [3] $end
$var wire 1 I HEX5 [2] $end
$var wire 1 J HEX5 [1] $end
$var wire 1 K HEX5 [0] $end
$var wire 1 L LEDR [9] $end
$var wire 1 M LEDR [8] $end
$var wire 1 N LEDR [7] $end
$var wire 1 O LEDR [6] $end
$var wire 1 P LEDR [5] $end
$var wire 1 Q LEDR [4] $end
$var wire 1 R LEDR [3] $end
$var wire 1 S LEDR [2] $end
$var wire 1 T LEDR [1] $end
$var wire 1 U LEDR [0] $end
$var reg 4 V KEY [3:0] $end
$var reg 10 W SW [9:0] $end

$scope module ml $end
$var parameter 32 X DATA_WIDTH $end
$var parameter 32 Y DEPTH $end
$var parameter 2 Z FILL $end
$var parameter 2 [ EXEC $end
$var parameter 2 \ DONE $end
$var parameter 7 ] HEX_0 $end
$var parameter 7 ^ HEX_1 $end
$var parameter 7 _ HEX_2 $end
$var parameter 7 ` HEX_3 $end
$var parameter 7 a HEX_4 $end
$var parameter 7 b HEX_5 $end
$var parameter 7 c HEX_6 $end
$var parameter 7 d HEX_7 $end
$var parameter 7 e HEX_8 $end
$var parameter 7 f HEX_9 $end
$var parameter 7 g HEX_10 $end
$var parameter 7 h HEX_11 $end
$var parameter 7 i HEX_12 $end
$var parameter 7 j HEX_13 $end
$var parameter 7 k HEX_14 $end
$var parameter 7 l HEX_15 $end
$var parameter 7 m OFF $end
$var wire 1 n CLOCK2_50 $end
$var wire 1 o CLOCK3_50 $end
$var wire 1 p CLOCK4_50 $end
$var wire 1 q CLOCK_50 $end
$var reg 7 r HEX0 [6:0] $end
$var reg 7 s HEX1 [6:0] $end
$var reg 7 t HEX2 [6:0] $end
$var reg 7 u HEX3 [6:0] $end
$var reg 7 v HEX4 [6:0] $end
$var reg 7 w HEX5 [6:0] $end
$var wire 1 L LEDR [9] $end
$var wire 1 M LEDR [8] $end
$var wire 1 N LEDR [7] $end
$var wire 1 O LEDR [6] $end
$var wire 1 P LEDR [5] $end
$var wire 1 Q LEDR [4] $end
$var wire 1 R LEDR [3] $end
$var wire 1 S LEDR [2] $end
$var wire 1 T LEDR [1] $end
$var wire 1 U LEDR [0] $end
$var wire 1 x KEY [3] $end
$var wire 1 y KEY [2] $end
$var wire 1 z KEY [1] $end
$var wire 1 { KEY [0] $end
$var wire 1 | SW [9] $end
$var wire 1 } SW [8] $end
$var wire 1 ~ SW [7] $end
$var wire 1 !! SW [6] $end
$var wire 1 "! SW [5] $end
$var wire 1 #! SW [4] $end
$var wire 1 $! SW [3] $end
$var wire 1 %! SW [2] $end
$var wire 1 &! SW [1] $end
$var wire 1 '! SW [0] $end
$var reg 2 (! state [1:0] $end
$var reg 24 )! result [23:0] $end
$var wire 1 *! rst_n $end
$var wire 1 +! rden [1] $end
$var wire 1 ,! rden [0] $end
$var wire 1 -! wren [1] $end
$var wire 1 .! wren [0] $end
$var wire 1 /! full [1] $end
$var wire 1 0! full [0] $end
$var wire 1 1! empty [1] $end
$var wire 1 2! empty [0] $end
$var wire 1 3! dataout [0] $end
$var wire 1 4! dataout [1] $end
$var wire 1 5! dataout [2] $end
$var wire 1 6! dataout [3] $end
$var wire 1 7! dataout [4] $end
$var wire 1 8! dataout [5] $end
$var wire 1 9! dataout [6] $end
$var wire 1 :! dataout [7] $end
$var wire 1 ;! dataout [8] $end
$var wire 1 <! dataout [9] $end
$var wire 1 =! dataout [10] $end
$var wire 1 >! dataout [11] $end
$var wire 1 ?! dataout [12] $end
$var wire 1 @! dataout [13] $end
$var wire 1 A! dataout [14] $end
$var wire 1 B! dataout [15] $end
$var wire 1 C! macout [23] $end
$var wire 1 D! macout [22] $end
$var wire 1 E! macout [21] $end
$var wire 1 F! macout [20] $end
$var wire 1 G! macout [19] $end
$var wire 1 H! macout [18] $end
$var wire 1 I! macout [17] $end
$var wire 1 J! macout [16] $end
$var wire 1 K! macout [15] $end
$var wire 1 L! macout [14] $end
$var wire 1 M! macout [13] $end
$var wire 1 N! macout [12] $end
$var wire 1 O! macout [11] $end
$var wire 1 P! macout [10] $end
$var wire 1 Q! macout [9] $end
$var wire 1 R! macout [8] $end
$var wire 1 S! macout [7] $end
$var wire 1 T! macout [6] $end
$var wire 1 U! macout [5] $end
$var wire 1 V! macout [4] $end
$var wire 1 W! macout [3] $end
$var wire 1 X! macout [2] $end
$var wire 1 Y! macout [1] $end
$var wire 1 Z! macout [0] $end
$var integer 32 [! j $end

$scope begin fifo_gen[1] $end
$var parameter 32 \! i $end

$scope module input_fifo $end
$var parameter 32 ]! DEPTH $end
$var parameter 32 ^! DATA_WIDTH $end
$var wire 1 q clk $end
$var wire 1 *! rst_n $end
$var wire 1 +! rden $end
$var wire 1 -! wren $end
$var wire 1 _! i_data [7] $end
$var wire 1 `! i_data [6] $end
$var wire 1 a! i_data [5] $end
$var wire 1 b! i_data [4] $end
$var wire 1 c! i_data [3] $end
$var wire 1 d! i_data [2] $end
$var wire 1 e! i_data [1] $end
$var wire 1 f! i_data [0] $end
$var reg 8 g! o_data [7:0] $end
$var wire 1 /! full $end
$var wire 1 1! empty $end
$var reg 3 h! fptr_raw [2:0] $end
$var reg 1 i! dir $end
$var reg 3 j! bptr_raw [2:0] $end
$upscope $end
$upscope $end

$scope begin fifo_gen[0] $end
$var parameter 32 k! i $end

$scope module input_fifo $end
$var parameter 32 l! DEPTH $end
$var parameter 32 m! DATA_WIDTH $end
$var wire 1 q clk $end
$var wire 1 *! rst_n $end
$var wire 1 ,! rden $end
$var wire 1 .! wren $end
$var wire 1 n! i_data [7] $end
$var wire 1 o! i_data [6] $end
$var wire 1 p! i_data [5] $end
$var wire 1 q! i_data [4] $end
$var wire 1 r! i_data [3] $end
$var wire 1 s! i_data [2] $end
$var wire 1 t! i_data [1] $end
$var wire 1 u! i_data [0] $end
$var reg 8 v! o_data [7:0] $end
$var wire 1 0! full $end
$var wire 1 2! empty $end
$var reg 3 w! fptr_raw [2:0] $end
$var reg 1 x! dir $end
$var reg 3 y! bptr_raw [2:0] $end
$upscope $end
$upscope $end

$scope module mac $end
$var parameter 32 z! DATA_WIDTH $end
$var wire 1 q clk $end
$var wire 1 *! rst_n $end
$var wire 1 {! En $end
$var wire 1 |! Clr $end
$var wire 1 :! Ain [7] $end
$var wire 1 9! Ain [6] $end
$var wire 1 8! Ain [5] $end
$var wire 1 7! Ain [4] $end
$var wire 1 6! Ain [3] $end
$var wire 1 5! Ain [2] $end
$var wire 1 4! Ain [1] $end
$var wire 1 3! Ain [0] $end
$var wire 1 B! Bin [7] $end
$var wire 1 A! Bin [6] $end
$var wire 1 @! Bin [5] $end
$var wire 1 ?! Bin [4] $end
$var wire 1 >! Bin [3] $end
$var wire 1 =! Bin [2] $end
$var wire 1 <! Bin [1] $end
$var wire 1 ;! Bin [0] $end
$var reg 24 }! Cout [23:0] $end
$upscope $end
$upscope $end
$upscope $end
$enddefinitions $end
#0
$dumpvars
0!
b0 V
b1 W
b1111111 r
b1111111 s
b1111111 t
b1111111 u
b1111111 v
b1111111 w
b0 (!
b0 )!
b0 v!
b0 w!
0x!
b0 y!
b0 g!
b0 h!
0i!
b0 j!
b0 }!
b1000 X
b1000 Y
b0 Z
b1 [
b10 \
b1000000 ]
b1111001 ^
b100100 _
b110000 `
b11001 a
b10010 b
b10 c
b1111000 d
b0 e
b11000 f
b1000 g
b11 h
b1000110 i
b100001 j
b110 k
b1110 l
b1111111 m
b1000 z!
b0 k!
b1000 l!
b1000 m!
b1 \!
b1000 ]!
b1000 ^!
b10 [!
1(
1'
1&
1%
1$
1#
1"
1/
1.
1-
1,
1+
1*
1)
16
15
14
13
12
11
10
1=
1<
1;
1:
19
18
17
1D
1C
1B
1A
1@
1?
1>
1K
1J
1I
1H
1G
1F
1E
0U
0T
0S
0R
0Q
0P
0O
0N
0M
0L
0*!
0,!
0+!
1.!
1-!
00!
0/!
12!
11!
03!
04!
05!
06!
07!
08!
09!
0:!
0;!
0<!
0=!
0>!
0?!
0@!
0A!
0B!
0Z!
0Y!
0X!
0W!
0V!
0U!
0T!
0S!
0R!
0Q!
0P!
0O!
0N!
0M!
0L!
0K!
0J!
0I!
0H!
0G!
0F!
0E!
0D!
0C!
0q
0n
0o
0p
0{
0z
0y
0x
1'!
0&!
0%!
0$!
0#!
0"!
0!!
0~
0}
0|
0|!
0{!
0u!
0t!
0s!
0r!
0q!
0p!
0o!
0n!
0f!
0e!
0d!
0c!
0b!
0a!
0`!
0_!
$end
#5000
1!
1p
1o
1n
1q
b0 [!
b1 [!
b10 [!
#10000
0!
0p
0o
0n
0q
#15000
1!
1p
1o
1n
1q
b0 [!
b1 [!
b10 [!
#20000
0!
0p
0o
0n
0q
#25000
1!
1p
1o
1n
1q
b0 [!
b1 [!
b10 [!
#30000
0!
0p
0o
0n
0q
#35000
1!
1p
1o
1n
1q
b0 [!
b1 [!
b10 [!
#40000
0!
0p
0o
0n
0q
#45000
1!
1p
1o
1n
1q
b0 [!
b1 [!
b10 [!
#50000
0!
0p
0o
0n
0q
#55000
1!
1p
1o
1n
1q
b0 [!
b1 [!
b10 [!
#60000
0!
0p
0o
0n
0q
#65000
1!
1p
1o
1n
1q
b0 [!
b1 [!
b10 [!
#70000
0!
0p
0o
0n
0q
#75000
1!
1p
1o
1n
1q
b0 [!
b1 [!
b10 [!
#80000
0!
0p
0o
0n
0q
#85000
1!
1p
1o
1n
1q
b0 [!
b1 [!
b10 [!
#90000
0!
0p
0o
0n
0q
#95000
1!
1p
1o
1n
1q
b0 [!
b1 [!
b10 [!
#100000
b1 V
b0 W
0!
1{
0p
0o
0n
0'!
0q
1*!
#105000
1!
1p
1o
1n
1q
b1 w!
1x!
b1 h!
1i!
02!
01!
1u!
1s!
1e!
1c!
#110000
0!
0p
0o
0n
0q
#115000
1!
1p
1o
1n
1q
b10 w!
b10 h!
0u!
1t!
0s!
1r!
0e!
1d!
0c!
1b!
#120000
0!
0p
0o
0n
0q
#125000
1!
1p
1o
1n
1q
b11 w!
b11 h!
1u!
1s!
1e!
1c!
#130000
0!
0p
0o
0n
0q
#135000
1!
1p
1o
1n
1q
b100 w!
b100 h!
0u!
0t!
0r!
1q!
0e!
0d!
0b!
1a!
#140000
0!
0p
0o
0n
0q
#145000
1!
1p
1o
1n
1q
b101 w!
b101 h!
1u!
0s!
1r!
1e!
0c!
1b!
#150000
0!
0p
0o
0n
0q
#155000
1!
1p
1o
1n
1q
b110 w!
b110 h!
0u!
1t!
1s!
0e!
1d!
1c!
#160000
0!
0p
0o
0n
0q
#165000
1!
1p
1o
1n
1q
b111 w!
b111 h!
1u!
0s!
0r!
0q!
1p!
1e!
0c!
0b!
0a!
1`!
#170000
0!
0p
0o
0n
0q
#175000
1!
1p
1o
1n
1q
b0 w!
b0 h!
10!
1/!
0u!
0t!
1r!
0e!
0d!
1b!
#180000
0!
0p
0o
0n
0q
#185000
1!
1p
1o
1n
1q
b1 (!
1,!
0.!
0-!
1+!
1{!
1U
#190000
0!
0p
0o
0n
0q
#195000
1!
1p
1o
1n
1q
b1 y!
0x!
b1 j!
0i!
00!
0/!
#200000
0!
0p
0o
0n
0q
#205000
1!
1p
1o
1n
1q
b101 v!
b10 y!
b1010 g!
b10 j!
1<!
1>!
13!
15!
#210000
0!
0p
0o
0n
0q
#215000
1!
1p
1o
1n
1q
b110010 }!
1Y!
1V!
1U!
b1010 v!
b11 y!
b10100 g!
b11 j!
0<!
1=!
0>!
1?!
03!
14!
05!
16!
#220000
0!
0p
0o
0n
0q
#225000
1!
1p
1o
1n
1q
b11111010 }!
1W!
1T!
1S!
b1111 v!
b100 y!
b11110 g!
b100 j!
1<!
1>!
13!
15!
#230000
0!
0p
0o
0n
0q
#235000
1!
1p
1o
1n
1q
b1010111100 }!
0Y!
1X!
0T!
1Q!
b10100 v!
b101 y!
b101000 g!
b101 j!
0<!
0=!
0?!
1@!
03!
04!
06!
17!
#240000
0!
0p
0o
0n
0q
#245000
1!
1p
1o
1n
1q
b10111011100 }!
0U!
1T!
1R!
0Q!
1P!
b11001 v!
b110 y!
b110010 g!
b110 j!
1<!
0>!
1?!
13!
05!
16!
#250000
0!
0p
0o
0n
0q
#255000
1!
1p
1o
1n
1q
b101010111110 }!
1Y!
1U!
0T!
0R!
1Q!
0P!
1O!
b11110 v!
b111 y!
b111100 g!
b111 j!
0<!
1=!
1>!
03!
14!
15!
#260000
0!
0p
0o
0n
0q
#265000
1!
1p
1o
1n
1q
b1000111000110 }!
0W!
0V!
0U!
1T!
1R!
0Q!
0O!
1N!
b100011 v!
b0 y!
b1000110 g!
b0 j!
12!
1<!
0>!
0?!
0@!
1A!
13!
05!
06!
07!
18!
11!
#270000
0!
0p
0o
0n
0q
#275000
1!
1p
1o
1n
1q
b1101101011000 }!
0Y!
0X!
1W!
1V!
0S!
1Q!
1O!
b10 (!
0,!
0+!
0{!
0U
1T
#280000
0!
0p
0o
0n
0q
#285000
1!
1p
1o
1n
1q
b1101101011000 )!
